<svg width="128" height="128" viewBox="0 0 128 128" fill="none" xmlns="http://www.w3.org/2000/svg">
<g clip-path="url(#clip0_1_2)">
<rect width="128" height="128" rx="32" fill="white"/>
<rect width="128" height="128" rx="32" fill="url(#paint0_linear_1_2)" fill-opacity="0.5"/>
<path d="M0 95.5L31 40L57 109.5L129.5 -0.5" stroke="#EE964B" stroke-width="10"/>
</g>
<defs>
<linearGradient id="paint0_linear_1_2" x1="64" y1="0" x2="64" y2="128" gradientUnits="userSpaceOnUse">
<stop stop-color="#606C38"/>
<stop offset="1" stop-color="#083D77"/>
</linearGradient>
<clipPath id="clip0_1_2">
<rect width="128" height="128" rx="32" fill="white"/>
</clipPath>
</defs>
</svg>
